+-----------------------------------------------------------+
|             O         O                                   |
|              \        |                                   |
|             O \      /         ,O     ,--( )              |
|             |  |    |     |   /      |                    |
|         +---'--'----'-----'---'------'------------+       |
|         |                                         |       |
|         |     |         |         |         |     |       |      
|         |  ---+---   ---+---   ---+---   ---+---  |       |
|         |     |         |         |         |     |       |
|         |                                         |       |
|         +-,--,---------------,--------,------,----+  ,O   |
|   O-------'--'               |        |      |______/     |
|                              |                            |
|        ,----- ,               \        ,----, ,----       |
|        |      |                ',---,  |    | |           |
|        |      |---, ,---, ,--- ,     \ |    | '----,      |
|        |      |   | |   | |    .     . |    |      |      |
|        '----- '   ' '---' '---  '---'  '----' '----'      |
|                                                           |
+-----------------------------------------------------------+